<svg width="375" height="667" viewBox="0 0 375 667" fill="none" xmlns="http://www.w3.org/2000/svg">
<g clip-path="url(#clip0)">
<path d="M215.191 392.854C218.988 401.574 217.343 413.038 216.558 415.537C216.39 416.073 213.026 407.387 213.465 401.707C213.905 396.025 215.191 392.854 215.191 392.854Z" fill="#8AC4D4"/>
<path d="M223.986 401.312C224.583 406.901 223.777 411.042 221.882 416.502C219.987 421.961 215.289 428.696 215.289 428.696C215.289 428.696 217.148 418.827 218.551 414.352C220.372 408.543 223.986 401.312 223.986 401.312Z" fill="#8AC4D4"/>
<path d="M208.54 414.719C208.54 414.719 211.918 419.928 212.972 426.321C214.026 432.714 211.779 440.539 211.779 440.539C211.779 440.539 211.564 436.165 209.456 428.078C208.051 422.692 208.475 419.076 208.54 414.719Z" fill="#8AC4D4"/>
<path d="M222.387 434.21C222.177 439.138 217.457 448.564 214.539 451.701C211.621 454.838 203.195 461.269 203.195 461.269C203.195 461.269 211.11 448.731 213.38 445.634C215.649 442.536 222.387 434.21 222.387 434.21Z" fill="#8AC4D4"/>
<path d="M201.652 439.852C204.162 443.757 204.644 448.19 204.317 453.048C203.991 457.906 198.398 469.311 198.398 469.311C198.398 469.311 200.169 460.594 199.579 454.314C198.989 448.034 201.652 439.852 201.652 439.852Z" fill="#8AC4D4"/>
<path d="M216.392 413.952C216.392 413.952 216.384 414.261 216.371 414.841C216.354 415.421 216.35 416.272 216.286 417.351C216.242 418.431 216.148 419.742 216.01 421.24C215.854 422.737 215.661 424.425 215.339 426.248C215.195 427.162 214.994 428.106 214.799 429.083C214.699 429.572 214.575 430.064 214.462 430.566C214.403 430.817 214.344 431.07 214.285 431.324C214.22 431.577 214.153 431.831 214.087 432.089C213.569 434.144 212.922 436.286 212.196 438.482C211.476 440.68 210.647 442.924 209.784 445.197C209.566 445.765 209.347 446.334 209.127 446.906C208.902 447.475 208.676 448.047 208.449 448.618L208.11 449.477L207.751 450.322L207.026 452.03C206.511 453.149 205.995 454.26 205.461 455.364C204.905 456.459 204.376 457.561 203.807 458.634C202.682 460.785 201.549 462.891 200.423 464.912C199.862 465.924 199.327 466.927 198.775 467.895C198.23 468.867 197.696 469.817 197.176 470.742C196.126 472.586 195.132 474.33 194.216 475.94C193.289 477.546 192.441 479.018 191.689 480.323C190.93 481.625 190.269 482.76 189.725 483.695C188.634 485.564 188.011 486.633 188.011 486.633C187.997 486.658 188.005 486.689 188.029 486.704C188.052 486.719 188.083 486.711 188.098 486.69C188.098 486.69 188.276 486.437 188.611 485.963C188.945 485.489 189.425 484.786 190.033 483.89C190.646 482.997 191.373 481.901 192.194 480.636C193.014 479.37 193.943 477.944 194.927 476.369C195.415 475.58 195.924 474.757 196.45 473.906C196.965 473.047 197.498 472.16 198.045 471.247C199.136 469.42 200.239 467.464 201.369 465.435C202.477 463.392 203.596 461.267 204.678 459.079C205.228 457.99 205.74 456.868 206.276 455.755C206.793 454.631 207.296 453.488 207.792 452.35L208.49 450.631L208.842 449.766L209.169 448.899C209.387 448.322 209.604 447.746 209.82 447.172C210.032 446.596 210.242 446.021 210.452 445.448C211.283 443.155 212.079 440.889 212.769 438.668C213.46 436.448 214.087 434.287 214.562 432.207C214.623 431.948 214.684 431.69 214.745 431.434C214.799 431.177 214.853 430.922 214.906 430.668C215.01 430.161 215.124 429.663 215.213 429.169C215.389 428.182 215.572 427.23 215.696 426.307C215.982 424.468 216.141 422.768 216.265 421.263C216.372 419.757 216.439 418.442 216.46 417.358C216.501 416.274 216.488 415.423 216.493 414.844C216.493 414.264 216.494 413.954 216.494 413.954C216.494 413.926 216.471 413.902 216.442 413.902C216.416 413.901 216.392 413.923 216.392 413.952Z" fill="#8AC4D4"/>
<path d="M229.64 458.203C231.589 456.725 228.462 478.357 216.081 492.577C207.692 502.21 189.21 501.809 189.21 501.809C189.21 501.809 184.934 490.18 196.77 476.222C208.606 462.265 221.07 464.698 229.64 458.203Z" fill="#97C260"/>
<path d="M189.273 501.883L189.151 501.739C189.455 501.477 219.759 475.351 229.883 458.136L230.046 458.232C219.905 475.474 189.578 501.621 189.273 501.883Z" fill="#E8F5F4"/>
<path d="M216.286 475.663L216.289 475.559C216.3 475.182 216.574 466.279 218.91 462.903L219.065 463.011C216.895 466.147 216.52 474.43 216.481 475.459C217.431 475.386 224.566 474.766 227.143 472.616L227.264 472.762C224.467 475.095 216.718 475.634 216.39 475.657L216.286 475.663Z" fill="#E8F5F4"/>
<path d="M206.235 486.088L206.216 486.028C206.18 485.914 202.691 474.673 206.014 468.144L206.182 468.23C203.021 474.443 206.104 485.006 206.378 485.91C207.327 485.978 218.399 486.749 221.084 485.561L221.161 485.733C218.326 486.989 206.79 486.131 206.299 486.094L206.235 486.088Z" fill="#E8F5F4"/>
<path d="M195.569 496.152L195.554 496.096C195.521 495.977 192.245 484.077 195.566 477.549L195.734 477.635C192.563 483.868 195.479 495.093 195.721 495.989C196.622 496.162 207.728 498.229 211.625 496.215L211.712 496.384C207.61 498.503 196.114 496.261 195.627 496.164L195.569 496.152Z" fill="#E8F5F4"/>
<path d="M225.125 482.942C215.347 480.613 193.545 473.14 187.782 499.047C186.715 503.847 202.366 506.754 212.507 498.213C218.701 492.996 225.125 482.942 225.125 482.942Z" fill="#8AC4D4"/>
<path d="M188.716 501.949C193.45 496.324 213.426 484.409 224.424 481.563L224.479 481.777C212.749 484.814 193.166 497.005 188.885 502.093L188.716 501.949Z" fill="#E8F5F4"/>
<path d="M209.53 487.912L209.544 487.809C209.578 487.561 210.392 481.712 213.011 479.923L213.135 480.106C210.781 481.713 209.9 486.936 209.778 487.737C210.659 487.911 216.956 489.133 219.893 488.959L219.906 489.18C216.732 489.369 209.702 487.948 209.632 487.934L209.53 487.912Z" fill="#E8F5F4"/>
<path d="M197.744 494.773C197.694 494.279 196.876 485.841 199.48 482.029L199.662 482.154C197.165 485.809 197.875 493.852 197.959 494.699C198.907 494.994 209.194 498.153 212.907 497.666L212.935 497.885C209.013 498.401 198.279 495.032 197.824 494.888L197.755 494.867L197.747 494.795C197.746 494.793 197.745 494.785 197.744 494.773Z" fill="#E8F5F4"/>
<path d="M45.4638 418.199C43.4811 415.499 39.1662 445.097 49.8761 468.588C57.1319 484.502 81.5346 491.198 81.5346 491.198C81.5346 491.198 91.6697 477.613 81.5731 454.679C71.4764 431.746 54.1785 430.068 45.4638 418.199Z" fill="#8AC4D4"/>
<path d="M81.4263 491.267L81.6435 491.127C81.3458 490.664 51.7567 444.552 45.1731 418.016L44.9219 418.078C51.5162 444.657 81.1286 490.805 81.4263 491.267Z" fill="#E8F5F4"/>
<path d="M56.1916 446.321L56.2282 446.184C56.3614 445.684 59.465 433.898 57.7157 428.558L57.4698 428.639C59.0949 433.6 56.365 444.612 56.0146 445.978C54.798 445.51 45.6783 441.91 43.1334 438.083L42.918 438.227C45.6792 442.381 55.6355 446.115 56.0584 446.273L56.1916 446.321Z" fill="#E8F5F4"/>
<path d="M65.3174 463.921L65.3666 463.849C65.4569 463.714 74.4093 450.331 72.5911 440.468L72.3364 440.515C74.0661 449.9 65.9101 462.553 65.2003 463.631C63.9274 463.35 49.102 460.036 46.0422 457.427L45.875 457.624C49.1056 460.378 64.5746 463.76 65.2325 463.903L65.3174 463.921Z" fill="#E8F5F4"/>
<path d="M75.3889 481.289L75.4309 481.222C75.5212 481.079 84.4504 466.748 82.6331 456.888L82.3783 456.935C84.1134 466.35 75.919 479.935 75.2539 481.017C74.0042 480.891 58.6299 479.264 54.3008 475.1L54.1211 475.287C58.6773 479.669 74.6317 481.219 75.3084 481.282L75.3889 481.289Z" fill="#E8F5F4"/>
<path d="M31.5195 446.841C45.1846 448.416 76.7145 448.997 72.0688 485.022C71.208 491.696 49.7159 488.117 40.6454 472.388C35.1032 462.779 31.5195 446.841 31.5195 446.841Z" fill="#97C260"/>
<path d="M70.9189 487.019C66.8034 477.829 44.9948 454.608 31.5952 446.709L31.4414 446.97C45.7349 455.395 66.9214 478.831 70.6436 487.142L70.9189 487.019Z" fill="#E8F5F4"/>
<path d="M48.8 460.687L48.8206 460.546C48.8698 460.206 49.9961 452.203 47.2214 448.86L46.989 449.054C49.4821 452.057 48.6794 459.262 48.5399 460.36C47.3153 460.258 38.5702 459.487 34.772 458.147L34.6719 458.433C38.7776 459.882 48.5605 460.666 48.6588 460.674L48.8 460.687Z" fill="#E8F5F4"/>
<path d="M61.7381 474.168C61.991 473.536 66.2362 462.744 64.241 456.745L63.9541 456.841C65.8661 462.592 61.9106 472.907 61.4833 473.99C60.1255 474.021 45.4038 474.293 40.7018 472.249L40.582 472.527C45.5495 474.686 60.938 474.307 61.5906 474.29L61.6889 474.288L61.7264 474.196C61.7282 474.194 61.7318 474.184 61.7381 474.168Z" fill="#E8F5F4"/>
<path d="M187.098 452.148H184.586V497.634H187.098V452.148Z" fill="#0C435B"/>
<path d="M164.289 452.148H161.777V485.857H164.289V452.148Z" fill="#0C435B"/>
<path d="M118.617 452.148H116.105V485.857H118.617V452.148Z" fill="#0C435B"/>
<path d="M95.8087 452.148H93.2969V485.857H95.8087V452.148Z" fill="#0C435B"/>
<path d="M193.137 443.214H173.535V490.668L193.137 446.314V443.214Z" fill="#175F76"/>
<path d="M169.629 462.215H167.117V495.923H169.629V462.215Z" fill="#0C435B"/>
<path d="M101.152 462.215H98.6406V495.923H101.152V462.215Z" fill="#0C435B"/>
<path d="M173.536 487.568H58.5391L78.1406 443.214H193.138L173.536 487.568Z" fill="#396548"/>
<path d="M79.3365 445.713H190.25L172.608 485.067H61.6953L79.3365 445.713Z" fill="white"/>
<path d="M185.349 459.077H73.5431C73.1766 459.077 72.8789 458.593 72.8789 457.995C72.8789 457.397 73.1757 456.913 73.5431 456.913H185.349C185.716 456.913 186.013 457.397 186.013 457.995C186.013 458.593 185.716 459.077 185.349 459.077Z" fill="#396548"/>
<path d="M179.084 473.831L67.047 473.747C66.6805 473.747 66.3828 473.262 66.3828 472.665C66.3828 472.067 66.6805 471.583 67.047 471.583L179.084 471.667C179.45 471.667 179.748 472.152 179.748 472.749C179.748 473.347 179.451 473.831 179.084 473.831Z" fill="#396548"/>
<path d="M75.9521 486.957C75.818 486.957 75.6821 486.89 75.565 486.753C75.2673 486.404 75.2003 485.729 75.4139 485.244L93.4601 444.388C93.6737 443.902 94.0876 443.791 94.3862 444.141C94.6838 444.49 94.7509 445.166 94.5372 445.65L76.4911 486.508C76.3615 486.801 76.1586 486.957 75.9521 486.957Z" fill="#396548"/>
<path d="M92.8075 486.958C92.6734 486.958 92.5376 486.891 92.4205 486.754C92.1228 486.405 92.0558 485.73 92.2694 485.245L110.523 443.927C110.737 443.442 111.151 443.331 111.449 443.68C111.747 444.029 111.814 444.705 111.6 445.19L93.3466 486.508C93.2169 486.802 93.014 486.958 92.8075 486.958Z" fill="#396548"/>
<path d="M108.018 486.957C107.883 486.957 107.747 486.891 107.63 486.752C107.334 486.402 107.267 485.726 107.481 485.242L125.735 444.149C125.949 443.664 126.366 443.555 126.662 443.906C126.958 444.257 127.025 444.932 126.811 445.416L108.557 486.509C108.427 486.802 108.224 486.957 108.018 486.957Z" fill="#396548"/>
<path d="M123.452 486.957C123.317 486.957 123.181 486.891 123.064 486.752C122.767 486.402 122.7 485.726 122.915 485.242L141.148 444.149C141.361 443.664 141.778 443.555 142.075 443.906C142.371 444.255 142.438 444.932 142.224 445.416L123.991 486.509C123.86 486.802 123.658 486.957 123.452 486.957Z" fill="#396548"/>
<path d="M138.925 486.956C138.791 486.956 138.655 486.89 138.538 486.753C138.24 486.404 138.172 485.728 138.387 485.243L156.646 443.88C156.86 443.393 157.273 443.286 157.572 443.633C157.871 443.982 157.938 444.658 157.724 445.143L139.465 486.506C139.335 486.8 139.132 486.956 138.925 486.956Z" fill="#396548"/>
<path d="M155.476 486.956C155.34 486.956 155.204 486.889 155.086 486.749C154.79 486.399 154.724 485.723 154.939 485.239L173.386 443.875C173.601 443.391 174.017 443.288 174.313 443.637C174.61 443.987 174.675 444.663 174.459 445.147L156.013 486.511C155.883 486.802 155.681 486.956 155.476 486.956Z" fill="#396548"/>
<path d="M58.534 490.668H173.531V487.568H58.534V490.668Z" fill="#396548"/>
<path d="M181.293 469.53H179.211V497.469H181.293V469.53Z" fill="#0C435B"/>
<path d="M143.441 469.53H141.359V497.469H143.441V469.53Z" fill="#0C435B"/>
<path d="M124.535 469.53H122.453V497.469H124.535V469.53Z" fill="#0C435B"/>
<path d="M205.207 462.124H188.961V501.455L205.207 464.694V462.124Z" fill="#396548"/>
<path d="M188.959 498.886H93.6484L109.895 462.125H205.205L188.959 498.886Z" fill="#396548"/>
<path d="M110.886 464.195H202.812L188.19 496.812H96.2656L110.886 464.195Z" fill="white"/>
<path d="M198.75 475.271H106.085C105.781 475.271 105.535 474.87 105.535 474.375C105.535 473.879 105.781 473.479 106.085 473.479H198.75C199.054 473.479 199.299 473.879 199.299 474.375C199.3 474.87 199.055 475.271 198.75 475.271Z" fill="#396548"/>
<path d="M193.554 487.5L100.698 487.43C100.394 487.43 100.148 487.029 100.148 486.534C100.148 486.038 100.395 485.638 100.698 485.638L193.554 485.708C193.858 485.708 194.104 486.109 194.104 486.604C194.104 487.1 193.858 487.5 193.554 487.5Z" fill="#396548"/>
<path d="M108.081 498.379C107.97 498.379 107.857 498.323 107.76 498.21C107.513 497.922 107.458 497.362 107.635 496.959L122.592 463.097C122.769 462.695 123.112 462.603 123.359 462.893C123.606 463.182 123.662 463.742 123.485 464.143L108.528 498.005C108.42 498.25 108.252 498.379 108.081 498.379Z" fill="#396548"/>
<path d="M122.05 498.378C121.939 498.378 121.826 498.323 121.729 498.21C121.482 497.921 121.426 497.361 121.603 496.958L136.732 462.714C136.909 462.312 137.253 462.22 137.5 462.51C137.747 462.798 137.802 463.358 137.625 463.761L122.496 498.005C122.389 498.249 122.221 498.378 122.05 498.378Z" fill="#396548"/>
<path d="M134.659 498.379C134.547 498.379 134.434 498.324 134.337 498.21C134.091 497.919 134.036 497.359 134.214 496.959L149.342 462.9C149.52 462.499 149.865 462.408 150.11 462.699C150.356 462.989 150.411 463.549 150.233 463.95L135.105 498.008C134.998 498.251 134.829 498.379 134.659 498.379Z" fill="#396548"/>
<path d="M147.452 498.38C147.34 498.38 147.227 498.324 147.13 498.21C146.884 497.921 146.829 497.36 147.007 496.959L162.118 462.901C162.295 462.5 162.64 462.409 162.886 462.699C163.132 462.989 163.187 463.55 163.009 463.951L147.898 498.009C147.791 498.252 147.622 498.38 147.452 498.38Z" fill="#396548"/>
<path d="M160.277 498.38C160.166 498.38 160.053 498.324 159.956 498.211C159.709 497.923 159.653 497.363 159.83 496.96L174.963 462.678C175.14 462.275 175.483 462.185 175.731 462.474C175.978 462.762 176.034 463.322 175.857 463.725L160.724 498.007C160.616 498.251 160.448 498.38 160.277 498.38Z" fill="#396548"/>
<path d="M173.991 498.379C173.878 498.379 173.766 498.323 173.668 498.208C173.422 497.917 173.368 497.357 173.547 496.956L188.835 462.674C189.014 462.273 189.358 462.188 189.603 462.476C189.849 462.767 189.902 463.327 189.725 463.727L174.436 498.01C174.329 498.252 174.162 498.379 173.991 498.379Z" fill="#396548"/>
<path d="M93.651 501.454H188.961V498.884H93.651V501.454Z" fill="#396548"/>
<path d="M129.798 408.88C130.105 408.382 130 408.977 131.022 407.413C131.13 407.248 133.552 404.991 133.788 404.893C134.024 404.796 134.043 408.703 133.941 408.88C133.84 409.057 132.287 409.619 132.078 409.675C131.87 409.731 130.549 410.498 130.493 410.818C130.437 411.139 129.102 410.009 129.798 408.88Z" fill="#FEC5BA"/>
<path d="M132.732 409.302L131.497 407.414C131.264 407.056 131.363 406.577 131.72 406.343L135.697 403.729C136.054 403.495 136.532 403.595 136.765 403.952L138 405.841C138.233 406.198 138.134 406.678 137.777 406.912L133.8 409.525C133.443 409.759 132.965 409.66 132.732 409.302Z" fill="#2C5139"/>
<path d="M136.207 409.438C136.04 410.546 135.686 412.156 135.54 412.407C135.394 412.658 133.434 413.934 133.434 414.101C133.434 414.269 136.207 417.635 136.207 417.635L141.525 413.537C141.525 413.537 140.04 413.154 140.086 412.972C140.145 412.744 140.879 409.104 141.525 407.284L136.207 409.438Z" fill="#FEC5BA"/>
<path d="M137.347 400.391C135.572 401.718 133.318 405.289 133.566 408.838C133.656 410.137 136.105 409.697 137.847 410.065C138.015 410.1 140.601 408.615 141.908 407.835C143.214 407.055 140.517 398.021 137.347 400.391Z" fill="#FEC5BA"/>
<path d="M140.666 399.311C142.213 399.623 144.831 399.965 145.916 409.518C146.356 413.387 153.172 417.277 153.175 417.299C153.955 422.784 146.822 425.138 145.277 425.239L145.292 422.645L139.616 413.079C138.974 411.997 138.87 410.677 139.336 409.508C139.566 408.931 139.762 408.438 139.75 408.393C139.667 408.059 139.247 407.732 139.08 407.543C138.913 407.355 138.963 405.136 138.943 405.031C138.922 404.926 137.347 404.565 135.984 402.948C135.118 401.922 135.573 400.968 135.681 400.902C137.389 399.838 139.383 399.053 140.666 399.311Z" fill="#396548"/>
<path d="M148.343 442.058C148.636 442.455 148.739 442.643 149.136 442.622C149.532 442.602 151.68 442.4 152.015 442.505C152.349 442.61 154.122 444.496 154.268 444.643C154.268 444.643 146.278 444.699 146.03 444.566C145.782 444.434 146.176 442.747 146.26 442.287C146.341 441.827 148.343 442.058 148.343 442.058Z" fill="#FEC5BA"/>
<path d="M138.732 407.681C139.044 407.217 139.344 406.764 139.837 406.832C140.369 406.906 140.481 407.307 140.288 407.737C140.096 408.167 139.198 408.773 138.925 408.921C138.653 409.07 138.269 408.37 138.732 407.681Z" fill="#FEC5BA"/>
<path d="M144.84 415.499C144.84 415.499 148.549 441.999 148.716 443.003C148.883 444.007 145.379 444.09 145.379 443.505C145.379 442.919 141.751 425.522 141.688 425.02C141.625 424.518 144.84 415.499 144.84 415.499Z" fill="#BC4749"/>
<path d="M130.492 411.278C130.492 411.278 120.679 418.313 120.637 418.983C120.595 419.652 122.359 423.194 122.567 423.32C122.776 423.445 130.492 418.807 130.492 418.807V411.278Z" fill="#BC4749"/>
<path d="M140.601 413.259C140.732 413.159 143.26 414.004 143.423 414.039C147.839 414.992 140.804 426.815 140.142 427.796C137.102 432.303 140.369 437.605 140.369 437.605L122.566 438.669C122.566 438.669 127.267 428.771 127.322 428.613C128.444 425.434 128.552 420.293 128.56 418.852C128.562 418.589 128.597 418.328 128.665 418.075C129.065 416.586 130.474 411.348 130.492 411.277C130.534 411.11 135.557 412.124 135.616 412.213C135.636 412.244 135.763 412.659 135.92 413.188C136.284 414.417 137.701 414.979 138.806 414.334C139.671 413.827 140.49 413.344 140.601 413.259Z" fill="#BC4749"/>
<path d="M129.696 408.644C129.696 408.644 118.371 420.484 118.277 420.67C116.948 423.322 118.345 424.617 120.294 424.182C120.627 424.107 122.564 423.319 122.564 423.319L131.364 410.693C131.364 410.693 129.895 408.457 129.696 408.644Z" fill="#BC4749"/>
<path d="M117.324 436.997H143.265L129.531 446.448L117.324 436.997Z" fill="#2C5139"/>
<path d="M136.366 448.974C137.623 449.355 144.907 450.023 145.186 450.414C145.464 450.804 145.209 454.394 142.878 454.73C142.489 454.787 136.746 453.313 136.489 452.979C136.233 452.645 133.562 450.024 133.562 450.024L134.998 448.125L136.366 448.974Z" fill="#97C260"/>
<path d="M116.712 436.997C115.402 436.997 114.204 437.737 113.615 438.91C113.106 439.925 112.899 440.421 112.769 441.346C112.467 443.486 113.738 444.078 114.016 444.246C114.294 444.414 133.98 451.439 134.648 451.718C135.315 451.997 137.262 448.651 136.983 448.54C136.705 448.429 118.965 436.998 118.965 436.998H116.712V436.997Z" fill="#396548"/>
<path d="M123.39 448.995C122.133 449.376 114.848 450.045 114.569 450.436C114.291 450.825 114.417 454.158 117.225 454.687C118.982 455.019 123.01 453.335 123.266 453.001C123.523 452.666 126.193 450.046 126.193 450.046L124.757 448.146L123.39 448.995Z" fill="#97C260"/>
<path d="M143.656 436.997C144.91 436.997 146.057 437.706 146.621 438.829C147.143 439.869 147.345 439.977 147.474 440.719C147.738 442.227 147.365 443.82 146.261 444.245C145.958 444.362 126.296 451.438 125.628 451.717C124.961 451.996 123.015 448.65 123.293 448.539C123.571 448.428 141.311 436.997 141.311 436.997H143.656Z" fill="#396548"/>
</g>
<defs>
<clipPath id="clip0">
<rect width="204.108" height="111.988" fill="white" transform="translate(31.4453 392.036)"/>
</clipPath>
</defs>
</svg>
